7.1. Databases
…
Huh! What happened?

Well, SQLite uses number of seconds from origin. So although it is accurate, this makes for some gyrations to get around the lack of actual date time types in SQLite.

One approach is to do the conversion in R, after collecting.

tbl(src = mtuDb, "mtu_precipitation") %>%
    dplyr::collect() %>%
    mutate(Date = as.Date(as.POSIXct(DateAndTime, origin = "1970-01-01")))

## # A tibble: 342 x 4
##    Sensor DateAndTime Precipitation Date      
##     <dbl>       <dbl>         <dbl> <date>    
##  1   2081  1578383660          15.9 2020-01-07
##  2   2081  1578340460          15.9 2020-01-06
##  3   2081  1578297260          15.9 2020-01-06
##  4   2081  1578210856          15.9 2020-01-05
##  5   2081  1578167661          15.9 2020-01-04
##  6   2081  1578124461          15.9 2020-01-04
##  7   2081  1578038062          15.9 2020-01-03
##  8   2081  1577951662          15.9 2020-01-02
##  9   2081  1577822062          15.9 2019-12-31
## 10   2081  1577778863          15.9 2019-12-31
## #  with 332 more rows
…
