Tutorial: Basic Regression
…
library(tibble)

column_names <- c('CRIM', 'ZN', 'INDUS', 'CHAS', 'NOX', 'RM', 'AGE', 
                  'DIS', 'RAD', 'TAX', 'PTRATIO', 'B', 'LSTAT')
train_df <- as_tibble(train_data)

## Warning: `as_tibble.matrix()` requires a matrix with column names or a `.name_repair` argument. Using compatibility `.name_repair`.
## This warning is displayed once per session.

colnames(train_df) <- column_names

train_df

## # A tibble: 404 x 13
##      CRIM    ZN INDUS  CHAS   NOX    RM   AGE   DIS   RAD   TAX PTRATIO     B
##     <dbl> <dbl> <dbl> <dbl> <dbl> <dbl> <dbl> <dbl> <dbl> <dbl>   <dbl> <dbl>
##  1 1.23     0    8.14     0 0.538  6.14  91.7  3.98     4   307    21    397.
##  2 0.0218  82.5  2.03     0 0.415  7.61  15.7  6.27     2   348    14.7  395.
##  3 4.90     0   18.1      0 0.631  4.97 100    1.33    24   666    20.2  376.
##  4 0.0396   0    5.19     0 0.515  6.04  34.5  5.99     5   224    20.2  397.
##  5 3.69     0   18.1      0 0.713  6.38  88.4  2.57    24   666    20.2  391.
##  6 0.284    0    7.38     0 0.493  5.71  74.3  4.72     5   287    19.6  391.
##  7 9.19     0   18.1      0 0.7    5.54 100    1.58    24   666    20.2  397.
##  8 4.10     0   19.6      0 0.871  5.47 100    1.41     5   403    14.7  397.
##  9 2.16     0   19.6      0 0.871  5.63 100    1.52     5   403    14.7  169.
## 10 1.63     0   21.9      0 0.624  5.02 100    1.44     4   437    21.2  397.
## #  with 394 more rows, and 1 more variable: LSTAT <dbl>
…
