6.1. Applications
…
6.1.7. Busiest and Slowest days

We first create a tripCount data set to work with.

tripData %>%
    mutate(Date = as.Date(StartDate)) %>%
    group_by(Date) %>%
    summarize(trips = n()) ->
    tripCounts

Let us print the first few rows to see what this looks like.

tripCounts %>% print(n = 20)

## # A tibble: 365 x 2
##    Date       trips
##    <date>     <int>
##  1 2014-09-01   368
##  2 2014-09-02  1319
##  3 2014-09-03  1404
##  4 2014-09-04  1389
##  5 2014-09-05  1265
##  6 2014-09-06   435
##  7 2014-09-07   336
##  8 2014-09-08  1305
##  9 2014-09-09  1362
## 10 2014-09-10  1351
## 11 2014-09-11  1381
## 12 2014-09-12  1308
## 13 2014-09-13   556
## 14 2014-09-14   435
## 15 2014-09-15  1516
## 16 2014-09-16  1438
## 17 2014-09-17  1429
## 18 2014-09-18  1186
## 19 2014-09-19  1245
## 20 2014-09-20   427
## #  with 345 more rows
…
